20
10
17 56 35 59 59 88 50 11 82 74 96 65 59 89 95 68 85 20 83 68
-5 7 16 -44 -33 -6 10 0 -30 9
6 6 -8 -3 0 5 5 -9 2 -2 4 -4 9 0 -4 0 0 0 0 -9
9 -5 0 0 0 -2 9 0 0 2 0 3 -5 -3 0 2 -3 -7 0 9
7 -1 -1 0 5 8 0 -1 0 10 10 -1 0 9 -9 0 -4 -7 -3 -3
0 -8 2 0 -9 -6 0 -4 -4 -3 0 0 5 -9 3 7 0 -6 1 -8
3 -1 0 0 0 -5 0 -9 -7 2 0 5 -5 -4 0 0 0 -7 8 -9
0 6 0 0 -6 -4 0 9 0 0 -3 0 -7 0 0 0 -6 6 -2 3
3 -4 4 -7 3 -4 -8 8 4 9 0 8 -7 0 10 -8 0 3 -1 0
2 8 0 -4 0 -5 5 0 0 7 -3 8 -2 -4 -4 10 7 -9 -5 -7
-1 5 0 2 -6 -7 7 -6 0 -5 -8 -2 -5 0 0 -1 0 -8 9 0
-2 7 -3 -6 -9 0 2 1 0 9 -9 7 0 -6 4 2 4 9 -7 10
