\relax 
\@nameuse{bbl@beforestart}
\catcode `"\active 
\babel@aux{portuguese}{}
\@writefile{toc}{\contentsline {section}{\numberline {1}Processo de Inferência a partir de uma população}{1}\protected@file@percent }
\@writefile{lof}{\contentsline {figure}{\numberline {1}{\ignorespaces Processo de inferência sobre uma população a partir de uma amostra}}{1}\protected@file@percent }
\newlabel{fig:M1}{{1}{1}}
\@writefile{lot}{\contentsline {table}{\numberline {1}{\ignorespaces Estatísticas $\times $ Parâmetros}}{1}\protected@file@percent }
\newlabel{tab:M1}{{1}{1}}
\@writefile{toc}{\contentsline {section}{\numberline {2}Distribuições Amostrais}{1}\protected@file@percent }
